{
  "project_info": {
    "project_number": "551248527417",
    "firebase_url": "https://fir-demo-6d538.firebaseio.com",
    "project_id": "fir-demo-6d538",
    "storage_bucket": "fir-demo-6d538.appspot.com"
  },
  "client": [
    {
      "client_info": {
        "mobilesdk_app_id": "1:551248527417:android:c2dd471abc2edd5e",
        "android_client_info": {
          "package_name": "com.demo.firebasedemo"
        }
      },
      "oauth_client": [
        {
          "client_id": "551248527417-c6gckkr43i93jqgk25odkqmri5ghkdht.apps.googleusercontent.com",
          "client_type": 1,
          "android_info": {
            "package_name": "com.demo.firebasedemo",
            "certificate_hash": "F7E247D7FB23EE9CF74B0721B1058E0F7177C0EE"
          }
        },
        {
          "client_id": "551248527417-jcqjn0fgkmt6u9nf2r5kiq8eb98v8r7h.apps.googleusercontent.com",
          "client_type": 3
        }
      ],
      "api_key": [
        {
          "current_key": "AIzaSyDqLfx6B3otriefMlLWfGUUaIjtPlmKoIU"
        }
      ],
      "services": {
        "analytics_service": {
          "status": 1
        },
        "appinvite_service": {
          "status": 2,
          "other_platform_oauth_client": [
            {
              "client_id": "551248527417-jcqjn0fgkmt6u9nf2r5kiq8eb98v8r7h.apps.googleusercontent.com",
              "client_type": 3
            }
          ]
        },
        "ads_service": {
          "status": 2
        }
      }
    }
  ],
  "configuration_version": "1"
}